…
pulse_df
```

    ## # A tibble: 4,348 × 5
    ##       id   age sex   visit bdi_score
    ##    <dbl> <dbl> <chr> <chr>     <dbl>
    ##  1 10003  48.0 male  00m           7
    ##  2 10003  48.0 male  01m           1
    ##  3 10003  48.0 male  06m           2
    ##  4 10003  48.0 male  12m           0
    ##  5 10015  72.5 male  00m           6
    ##  6 10015  72.5 male  01m          NA
    ##  7 10015  72.5 male  06m          NA
    ##  8 10015  72.5 male  12m          NA
    ##  9 10022  58.5 male  00m          14
    ## 10 10022  58.5 male  01m           3
    ## # ℹ 4,338 more rows
…
    ## Rows: 49 Columns: 8
    ## ── Column specification ────────────────────────────────────────────────────────
    ## Delimiter: ","
    ## chr (2): Group, Litter Number
    ## dbl (6): GD0 weight, GD18 weight, GD of Birth, Pups born alive, Pups dead @ ...
    ## 
    ## ℹ Use `spec()` to retrieve the full column specification for this data.
    ## ℹ Specify the column types or set `show_col_types = FALSE` to quiet this message.

``` r
litters_df
```

    ## # A tibble: 98 × 3
    ##    litter_number    gd weight
    ##    <chr>         <dbl>  <dbl>
    ##  1 #85               0   19.7
    ##  2 #85              18   34.7
    ##  3 #1/2/95/2         0   27  
    ##  4 #1/2/95/2        18   42  
    ##  5 #5/5/3/83/3-3     0   26  
    ##  6 #5/5/3/83/3-3    18   41.4
    ##  7 #5/4/2/95/2       0   28.5
    ##  8 #5/4/2/95/2      18   44.1
    ##  9 #4/2/95/3-3       0   NA  
    ## 10 #4/2/95/3-3      18   NA  
    ## # ℹ 88 more rows
…
    ## Rows: 49 Columns: 8
    ## ── Column specification ────────────────────────────────────────────────────────
    ## Delimiter: ","
    ## chr (2): Group, Litter Number
    ## dbl (6): GD0 weight, GD18 weight, GD of Birth, Pups born alive, Pups dead @ ...
    ## 
    ## ℹ Use `spec()` to retrieve the full column specification for this data.
    ## ℹ Specify the column types or set `show_col_types = FALSE` to quiet this message.

``` r
litters_df
```

    ## # A tibble: 49 × 4
    ##    litter_number   dose  day_of_tx wt_gain
    ##    <chr>           <chr> <chr>       <dbl>
    ##  1 #85             Con   7            15  
    ##  2 #1/2/95/2       Con   7            15  
    ##  3 #5/5/3/83/3-3   Con   7            15.4
    ##  4 #5/4/2/95/2     Con   7            15.6
    ##  5 #4/2/95/3-3     Con   7            NA  
    ##  6 #2/2/95/3-2     Con   7            NA  
    ##  7 #1/5/3/83/3-3/2 Con   7            NA  
    ##  8 #3/83/3-3       Con   8            NA  
    ##  9 #2/95/3         Con   8            NA  
    ## 10 #3/5/2/2/95     Con   8            NA  
    ## # ℹ 39 more rows
…
    ## Rows: 313 Columns: 6
    ## ── Column specification ────────────────────────────────────────────────────────
    ## Delimiter: ","
    ## chr (1): Litter Number
    ## dbl (5): Sex, PD ears, PD eyes, PD pivot, PD walk
    ## 
    ## ℹ Use `spec()` to retrieve the full column specification for this data.
    ## ℹ Specify the column types or set `show_col_types = FALSE` to quiet this message.

``` r
pups_df
```

    ## # A tibble: 313 × 6
    ##    litter_number sex   pd_ears pd_eyes pd_pivot pd_walk
    ##    <chr>         <chr>   <dbl>   <dbl>    <dbl>   <dbl>
    ##  1 #85           male        4      13        7      11
    ##  2 #85           male        4      13        7      12
    ##  3 #1/2/95/2     male        5      13        7       9
    ##  4 #1/2/95/2     male        5      13        8      10
    ##  5 #5/5/3/83/3-3 male        5      13        8      10
    ##  6 #5/5/3/83/3-3 male        5      14        6       9
    ##  7 #5/4/2/95/2   male       NA      14        5       9
    ##  8 #4/2/95/3-3   male        4      13        6       8
    ##  9 #4/2/95/3-3   male        4      13        7       9
    ## 10 #2/2/95/3-2   male        4      NA        8      10
    ## # ℹ 303 more rows

``` r
fas_df = 
  left_join(pups_df, litters_df, by = "litter_number")

fas_df
```

    ## # A tibble: 313 × 9
    ##    litter_number sex   pd_ears pd_eyes pd_pivot pd_walk dose  day_of_tx wt_gain
    ##    <chr>         <chr>   <dbl>   <dbl>    <dbl>   <dbl> <chr> <chr>       <dbl>
    ##  1 #85           male        4      13        7      11 Con   7            15  
    ##  2 #85           male        4      13        7      12 Con   7            15  
    ##  3 #1/2/95/2     male        5      13        7       9 Con   7            15  
    ##  4 #1/2/95/2     male        5      13        8      10 Con   7            15  
    ##  5 #5/5/3/83/3-3 male        5      13        8      10 Con   7            15.4
    ##  6 #5/5/3/83/3-3 male        5      14        6       9 Con   7            15.4
    ##  7 #5/4/2/95/2   male       NA      14        5       9 Con   7            15.6
    ##  8 #4/2/95/3-3   male        4      13        6       8 Con   7            NA  
    ##  9 #4/2/95/3-3   male        4      13        7       9 Con   7            NA  
    ## 10 #2/2/95/3-2   male        4      NA        8      10 Con   7            NA  
    ## # ℹ 303 more rows
…
